<?xml version="1.0" encoding="utf-8"?>
<svg version="1.1" baseProfile="full"  width="1000" height="1000" viewBox="0 0 1000 1000"
		 xmlns="http://www.w3.org/2000/svg" xmlns:xlink="http://www.w3.org/1999/xlink" xmlns:ev="http://www.w3.org/2001/xml-events">
<desc></desc>
<rect width="1000" height="1000" fill="#ffffff" cx="0" cy="0" />
<defs>
<rect id="p" width="40" height="40" />
</defs>
<g fill="#000000">
<use x="80" y="80" xlink:href="#p" />
<use x="80" y="120" xlink:href="#p" />
<use x="80" y="160" xlink:href="#p" />
<use x="80" y="200" xlink:href="#p" />
<use x="80" y="240" xlink:href="#p" />
<use x="80" y="280" xlink:href="#p" />
<use x="80" y="320" xlink:href="#p" />
<use x="80" y="400" xlink:href="#p" />
<use x="80" y="440" xlink:href="#p" />
<use x="80" y="520" xlink:href="#p" />
<use x="80" y="640" xlink:href="#p" />
<use x="80" y="680" xlink:href="#p" />
<use x="80" y="720" xlink:href="#p" />
<use x="80" y="760" xlink:href="#p" />
<use x="80" y="800" xlink:href="#p" />
<use x="80" y="840" xlink:href="#p" />
<use x="80" y="880" xlink:href="#p" />
<use x="120" y="80" xlink:href="#p" />
<use x="120" y="320" xlink:href="#p" />
<use x="120" y="400" xlink:href="#p" />
<use x="120" y="560" xlink:href="#p" />
<use x="120" y="640" xlink:href="#p" />
<use x="120" y="880" xlink:href="#p" />
<use x="160" y="80" xlink:href="#p" />
<use x="160" y="160" xlink:href="#p" />
<use x="160" y="200" xlink:href="#p" />
<use x="160" y="240" xlink:href="#p" />
<use x="160" y="320" xlink:href="#p" />
<use x="160" y="400" xlink:href="#p" />
<use x="160" y="440" xlink:href="#p" />
<use x="160" y="520" xlink:href="#p" />
<use x="160" y="640" xlink:href="#p" />
<use x="160" y="720" xlink:href="#p" />
<use x="160" y="760" xlink:href="#p" />
<use x="160" y="800" xlink:href="#p" />
<use x="160" y="880" xlink:href="#p" />
<use x="200" y="80" xlink:href="#p" />
<use x="200" y="160" xlink:href="#p" />
<use x="200" y="200" xlink:href="#p" />
<use x="200" y="240" xlink:href="#p" />
<use x="200" y="320" xlink:href="#p" />
<use x="200" y="400" xlink:href="#p" />
<use x="200" y="520" xlink:href="#p" />
<use x="200" y="640" xlink:href="#p" />
<use x="200" y="720" xlink:href="#p" />
<use x="200" y="760" xlink:href="#p" />
<use x="200" y="800" xlink:href="#p" />
<use x="200" y="880" xlink:href="#p" />
<use x="240" y="80" xlink:href="#p" />
<use x="240" y="160" xlink:href="#p" />
<use x="240" y="200" xlink:href="#p" />
<use x="240" y="240" xlink:href="#p" />
<use x="240" y="320" xlink:href="#p" />
<use x="240" y="440" xlink:href="#p" />
<use x="240" y="480" xlink:href="#p" />
<use x="240" y="520" xlink:href="#p" />
<use x="240" y="560" xlink:href="#p" />
<use x="240" y="640" xlink:href="#p" />
<use x="240" y="720" xlink:href="#p" />
<use x="240" y="760" xlink:href="#p" />
<use x="240" y="800" xlink:href="#p" />
<use x="240" y="880" xlink:href="#p" />
<use x="280" y="80" xlink:href="#p" />
<use x="280" y="320" xlink:href="#p" />
<use x="280" y="480" xlink:href="#p" />
<use x="280" y="560" xlink:href="#p" />
<use x="280" y="640" xlink:href="#p" />
<use x="280" y="880" xlink:href="#p" />
<use x="320" y="80" xlink:href="#p" />
<use x="320" y="120" xlink:href="#p" />
<use x="320" y="160" xlink:href="#p" />
<use x="320" y="200" xlink:href="#p" />
<use x="320" y="240" xlink:href="#p" />
<use x="320" y="280" xlink:href="#p" />
<use x="320" y="320" xlink:href="#p" />
<use x="320" y="400" xlink:href="#p" />
<use x="320" y="480" xlink:href="#p" />
<use x="320" y="560" xlink:href="#p" />
<use x="320" y="640" xlink:href="#p" />
<use x="320" y="680" xlink:href="#p" />
<use x="320" y="720" xlink:href="#p" />
<use x="320" y="760" xlink:href="#p" />
<use x="320" y="800" xlink:href="#p" />
<use x="320" y="840" xlink:href="#p" />
<use x="320" y="880" xlink:href="#p" />
<use x="360" y="480" xlink:href="#p" />
<use x="400" y="80" xlink:href="#p" />
<use x="400" y="160" xlink:href="#p" />
<use x="400" y="200" xlink:href="#p" />
<use x="400" y="240" xlink:href="#p" />
<use x="400" y="320" xlink:href="#p" />
<use x="400" y="400" xlink:href="#p" />
<use x="400" y="440" xlink:href="#p" />
<use x="400" y="600" xlink:href="#p" />
<use x="400" y="760" xlink:href="#p" />
<use x="400" y="800" xlink:href="#p" />
<use x="400" y="840" xlink:href="#p" />
<use x="400" y="880" xlink:href="#p" />
<use x="440" y="160" xlink:href="#p" />
<use x="440" y="200" xlink:href="#p" />
<use x="440" y="280" xlink:href="#p" />
<use x="440" y="400" xlink:href="#p" />
<use x="440" y="520" xlink:href="#p" />
<use x="440" y="600" xlink:href="#p" />
<use x="440" y="720" xlink:href="#p" />
<use x="440" y="760" xlink:href="#p" />
<use x="440" y="840" xlink:href="#p" />
<use x="480" y="80" xlink:href="#p" />
<use x="480" y="120" xlink:href="#p" />
<use x="480" y="280" xlink:href="#p" />
<use x="480" y="320" xlink:href="#p" />
<use x="480" y="400" xlink:href="#p" />
<use x="480" y="440" xlink:href="#p" />
<use x="480" y="520" xlink:href="#p" />
<use x="480" y="600" xlink:href="#p" />
<use x="480" y="680" xlink:href="#p" />
<use x="480" y="720" xlink:href="#p" />
<use x="480" y="760" xlink:href="#p" />
<use x="480" y="800" xlink:href="#p" />
<use x="480" y="840" xlink:href="#p" />
<use x="480" y="880" xlink:href="#p" />
<use x="520" y="80" xlink:href="#p" />
<use x="520" y="120" xlink:href="#p" />
<use x="520" y="160" xlink:href="#p" />
<use x="520" y="240" xlink:href="#p" />
<use x="520" y="280" xlink:href="#p" />
<use x="520" y="360" xlink:href="#p" />
<use x="520" y="400" xlink:href="#p" />
<use x="520" y="480" xlink:href="#p" />
<use x="520" y="520" xlink:href="#p" />
<use x="520" y="560" xlink:href="#p" />
<use x="520" y="600" xlink:href="#p" />
<use x="520" y="640" xlink:href="#p" />
<use x="520" y="680" xlink:href="#p" />
<use x="520" y="800" xlink:href="#p" />
<use x="560" y="80" xlink:href="#p" />
<use x="560" y="200" xlink:href="#p" />
<use x="560" y="280" xlink:href="#p" />
<use x="560" y="320" xlink:href="#p" />
<use x="560" y="360" xlink:href="#p" />
<use x="560" y="400" xlink:href="#p" />
<use x="560" y="440" xlink:href="#p" />
<use x="560" y="560" xlink:href="#p" />
<use x="560" y="600" xlink:href="#p" />
<use x="560" y="760" xlink:href="#p" />
<use x="560" y="800" xlink:href="#p" />
<use x="600" y="400" xlink:href="#p" />
<use x="600" y="440" xlink:href="#p" />
<use x="600" y="600" xlink:href="#p" />
<use x="600" y="680" xlink:href="#p" />
<use x="600" y="720" xlink:href="#p" />
<use x="600" y="760" xlink:href="#p" />
<use x="600" y="800" xlink:href="#p" />
<use x="600" y="840" xlink:href="#p" />
<use x="600" y="880" xlink:href="#p" />
<use x="640" y="80" xlink:href="#p" />
<use x="640" y="120" xlink:href="#p" />
<use x="640" y="160" xlink:href="#p" />
<use x="640" y="200" xlink:href="#p" />
<use x="640" y="240" xlink:href="#p" />
<use x="640" y="280" xlink:href="#p" />
<use x="640" y="320" xlink:href="#p" />
<use x="640" y="560" xlink:href="#p" />
<use x="640" y="640" xlink:href="#p" />
<use x="640" y="760" xlink:href="#p" />
<use x="640" y="840" xlink:href="#p" />
<use x="640" y="880" xlink:href="#p" />
<use x="680" y="80" xlink:href="#p" />
<use x="680" y="320" xlink:href="#p" />
<use x="680" y="480" xlink:href="#p" />
<use x="680" y="560" xlink:href="#p" />
<use x="680" y="720" xlink:href="#p" />
<use x="680" y="760" xlink:href="#p" />
<use x="680" y="840" xlink:href="#p" />
<use x="680" y="880" xlink:href="#p" />
<use x="720" y="80" xlink:href="#p" />
<use x="720" y="160" xlink:href="#p" />
<use x="720" y="200" xlink:href="#p" />
<use x="720" y="240" xlink:href="#p" />
<use x="720" y="320" xlink:href="#p" />
<use x="720" y="400" xlink:href="#p" />
<use x="720" y="520" xlink:href="#p" />
<use x="720" y="600" xlink:href="#p" />
<use x="720" y="640" xlink:href="#p" />
<use x="720" y="840" xlink:href="#p" />
<use x="760" y="80" xlink:href="#p" />
<use x="760" y="160" xlink:href="#p" />
<use x="760" y="200" xlink:href="#p" />
<use x="760" y="240" xlink:href="#p" />
<use x="760" y="320" xlink:href="#p" />
<use x="760" y="400" xlink:href="#p" />
<use x="760" y="440" xlink:href="#p" />
<use x="760" y="520" xlink:href="#p" />
<use x="760" y="560" xlink:href="#p" />
<use x="760" y="640" xlink:href="#p" />
<use x="760" y="680" xlink:href="#p" />
<use x="760" y="720" xlink:href="#p" />
<use x="760" y="760" xlink:href="#p" />
<use x="800" y="80" xlink:href="#p" />
<use x="800" y="160" xlink:href="#p" />
<use x="800" y="200" xlink:href="#p" />
<use x="800" y="240" xlink:href="#p" />
<use x="800" y="320" xlink:href="#p" />
<use x="800" y="400" xlink:href="#p" />
<use x="800" y="480" xlink:href="#p" />
<use x="800" y="680" xlink:href="#p" />
<use x="800" y="720" xlink:href="#p" />
<use x="800" y="800" xlink:href="#p" />
<use x="800" y="880" xlink:href="#p" />
<use x="840" y="80" xlink:href="#p" />
<use x="840" y="320" xlink:href="#p" />
<use x="840" y="480" xlink:href="#p" />
<use x="840" y="520" xlink:href="#p" />
<use x="840" y="560" xlink:href="#p" />
<use x="840" y="600" xlink:href="#p" />
<use x="840" y="680" xlink:href="#p" />
<use x="840" y="720" xlink:href="#p" />
<use x="840" y="760" xlink:href="#p" />
<use x="880" y="80" xlink:href="#p" />
<use x="880" y="120" xlink:href="#p" />
<use x="880" y="160" xlink:href="#p" />
<use x="880" y="200" xlink:href="#p" />
<use x="880" y="240" xlink:href="#p" />
<use x="880" y="280" xlink:href="#p" />
<use x="880" y="320" xlink:href="#p" />
<use x="880" y="400" xlink:href="#p" />
<use x="880" y="440" xlink:href="#p" />
<use x="880" y="480" xlink:href="#p" />
<use x="880" y="600" xlink:href="#p" />
<use x="880" y="840" xlink:href="#p" />
</g>

</svg>